<svg version="1.1" id="Layer_1" xmlns="http://www.w3.org/2000/svg" xmlns:xlink="http://www.w3.org/1999/xlink" x="0px" y="0px"
	 viewBox="0 0 17 22" style="enable-background:new 0 0 17 22;" xml:space="preserve">
<style type="text/css">
	.st0{fill:#999999;}
</style>
<g>
	<g id="_x37_11-trash_x40_2x.png">
		<g>
			<path class="st0" d="M4.7,4.7c-0.2,0-0.4,0.2-0.4,0.4l0.8,14.1c0,0.2,0.2,0.4,0.4,0.4s0.4-0.2,0.4-0.4L5.1,5.1
				C5.1,4.9,4.9,4.7,4.7,4.7z M8.2,4.7C8,4.7,7.8,4.9,7.8,5.1v14.1c0,0.2,0.2,0.4,0.4,0.4c0.2,0,0.4-0.2,0.4-0.4V5.1
				C8.6,4.9,8.5,4.7,8.2,4.7z M16.1,2.4h-4.3V1.6c0-0.9-0.7-1.6-1.6-1.6H6.3C5.4,0,4.7,0.7,4.7,1.6v0.8H0.4C0.2,2.4,0,2.5,0,2.7
				C0,3,0.2,3.1,0.4,3.1h0.4l1.6,17.3c0,0.9,0.7,1.6,1.6,1.6h8.6c0.9,0,1.6-0.7,1.6-1.6l1.6-17.3h0.4c0.2,0,0.4-0.2,0.4-0.4
				C16.5,2.5,16.3,2.4,16.1,2.4z M5.5,1.6c0-0.4,0.4-0.8,0.8-0.8h3.9c0.4,0,0.8,0.4,0.8,0.8v0.8H5.5L5.5,1.6L5.5,1.6z M13.3,20.4
				c0,0.4-0.4,0.8-0.8,0.8H3.9c-0.4,0-0.8-0.4-0.8-0.8L1.6,3.1h3.1h0.8H11h0.8h3.1L13.3,20.4z M11.4,5.1l-0.8,14.1
				c0,0.2,0.2,0.4,0.4,0.4s0.4-0.2,0.4-0.4l0.8-14.1c0-0.2-0.2-0.4-0.4-0.4C11.6,4.7,11.4,4.9,11.4,5.1z"/>
		</g>
	</g>
</g>
</svg>
